{
  "development": {
    "username": "chat",
    "password": 123456,
    "database": "chat_dev",
    "host": "db",
    "dialect": "postgres",
    "logging": false
  },
  "test": {
    "username": "chat",
    "password": 123456,
    "database": "chat_dev",
    "host": "db",
    "dialect": "postgres",
    "logging": false
  },
  "production": {
    "username": "chat",
    "password": 123456,
    "database": "chat_dev",
    "host": "db",
    "dialect": "postgres",
    "logging": false
  }
}
